<?xml version="1.0" encoding="UTF-8" standalone="no"?>
<svg
   width="32"
   height="32"
   viewBox="0 0 8.4666665 8.4666669"
   version="1.1"
   xmlns="http://www.w3.org/2000/svg"
   xmlns:svg="http://www.w3.org/2000/svg">
  <g
     id="layer1">
    <rect
       style="fill:none;fill-opacity:1;stroke:#6600ff;stroke-width:0.267246;stroke-miterlimit:4;stroke-dasharray:none"
       id="rect1665"
       width="7.141088"
       height="7.1410875"
       x="0.66278964"
       y="0.66278946" />
    <rect
       style="fill:none;fill-opacity:1;stroke:#6600ff;stroke-width:0.264583;stroke-miterlimit:4;stroke-dasharray:none"
       id="rect1787"
       width="2.3812504"
       height="2.3812504"
       x="0.66145831"
       y="0.66145813" />
    <rect
       style="fill:none;fill-opacity:1;stroke:#6600ff;stroke-width:0.264583;stroke-miterlimit:4;stroke-dasharray:none"
       id="rect1787-7"
       width="2.3812504"
       height="2.3812504"
       x="3.0427082"
       y="0.66145813" />
    <rect
       style="fill:none;fill-opacity:1;stroke:#6600ff;stroke-width:0.264583;stroke-miterlimit:4;stroke-dasharray:none"
       id="rect1787-7-5"
       width="2.3812504"
       height="2.3812504"
       x="5.4239583"
       y="0.66145813" />
    <rect
       style="fill:none;fill-opacity:1;stroke:#6600ff;stroke-width:0.264583;stroke-miterlimit:4;stroke-dasharray:none"
       id="rect1787-7-5-7"
       width="2.3812504"
       height="2.3812504"
       x="0.66145813"
       y="3.0427082" />
    <rect
       style="fill:none;fill-opacity:1;stroke:#6600ff;stroke-width:0.264583;stroke-miterlimit:4;stroke-dasharray:none"
       id="rect1787-7-5-7-7"
       width="2.3812504"
       height="2.3812504"
       x="3.0427082"
       y="3.0427082" />
    <rect
       style="fill:none;fill-opacity:1;stroke:#6600ff;stroke-width:0.264583;stroke-miterlimit:4;stroke-dasharray:none"
       id="rect1787-7-5-7-76"
       width="2.3812504"
       height="2.3812504"
       x="5.4239583"
       y="3.0427082" />
    <rect
       style="fill:none;fill-opacity:1;stroke:#6600ff;stroke-width:0.264583;stroke-miterlimit:4;stroke-dasharray:none"
       id="rect1787-7-5-7-6"
       width="2.3812504"
       height="2.3812504"
       x="3.0427082"
       y="5.4239583" />
    <rect
       style="fill:none;fill-opacity:1;stroke:#6600ff;stroke-width:0.264583;stroke-miterlimit:4;stroke-dasharray:none"
       id="rect1787-7-5-7-6-3"
       width="2.3812504"
       height="2.3812504"
       x="5.4239583"
       y="5.4239583" />
    <rect
       style="fill:none;fill-opacity:1;stroke:#6600ff;stroke-width:0.264583;stroke-miterlimit:4;stroke-dasharray:none"
       id="rect1787-7-5-7-5"
       width="2.3812504"
       height="2.3812504"
       x="0.66145813"
       y="5.4239583" />
  </g>
</svg>
